{
  "model": "Category",
  "objects": [
    {
      "name": "Women",
      "code": "women",
      "description":"all things that concern women",
      "children": [{
        "model": "Category",
        "property": "categories",
        "objects":[{
          "name": "Dresses",
          "code": "w_dresses",
          "level": 1,
          "description":"all things that concern dresses"
        },
        {
          "name": "Blouses, Shirts & Tops",
          "code": "blouses_shirts_tops",
          "level": 1,
          "description":"all things that concern Blouses, Shirts & Tops"
        },
        {
          "name": "Bra's, Briefs & Lingerie",
          "code": "bras_brief_lingerie",
          "level": 1,
          "description":"all things that concern Bra's, Briefs & Lingerie"
        },
        {
          "name": "Shoes",
          "code": "w_shoes",
          "level": 1,
          "description":"all things that concern women shoes"
        },
          {
          "name": "Pants & Jeans",
          "code": "w_pants_jeans",
          "level": 1,
          "description":"all things that concern ..."
        },
        {
          "name": "Jewelry & Accessories",
          "code": "w_jewelry_accessories",
          "level": 1,
          "description":"all things that concern ..."
        },
          {
          "name": "Sunglasses & Watches",
          "code": "w_sunglasses_watches",
          "level": 1,
          "description":"all things that concern ..."
        }
        ],
        "parent": "parent_id"
      }]
    },
    {
      "name": "Men",
      "code": "Men",
      "description":"all things that concern men",
      "children": [
        {
          "model": "Category",
          "property": "categories",
          "objects": [
            {
          "name": "Shirts & Tops",
          "code": "m_shirts_tops",
          "level": 1,
          "description":"all things that concern ..."
        },
        {
          "name": "Boxer's, Briefs & Socks",
          "code": "boxers_briefs_socks",
          "level": 1,
          "description":"all things that concern ..."
        },
        {
          "name": "Shoes",
          "code": "m_shoes",
          "level": 1,
          "description":"all things that concern men shoes"
        },
          {
          "name": "Pants & Jeans",
          "code": "m_pants_jeans",
          "level": 1,
          "description":"all things that concern ..."
        },
        {
          "name": "Jewelry & Accessories",
          "code": "m_jewelry_accessories",
          "level": 1,
          "description":"all things that concern ..."
        },
          {
          "name": "Sunglasses & Watches",
          "code": "m_sunglasses_watches",
          "level": 1,
          "description":"all things that concern ..."
        }
          ],
          "parent": "parent_id"
        }]
    },
    {
      "name": "Phone & Accessories",
      "code": "phone_accessories",
      "description":"all things that concern phone and accessories",
      "children": [{
        "model": "Category",
        "property": "categories",
        "objects":[{
          "name": "Smart Phones",
          "code": "smart_phones",
          "level": 1,
          "description":"all things that concern ..."
        },
        {
          "name": "Feature Phones",
          "code": "feature_phones",
          "level": 1,
          "description":"all things that concern ..."
        },
          {
          "name": "Cases & Covers",
          "code": "p_cases_cover",
          "level": 1,
          "description":"all things that concern ..."
        },
        {
          "name": "Phone Accessories",
          "code": "p_accessories",
          "level": 1,
          "description":"all things that concern ..."
        }],
        "parent": "parent_id"
      }]
    },
    {
      "name": "Computer & Office",
      "code": "computer_office",
      "description":"all things that concern computer and office",
      "children": [{
        "model": "Category",
        "property": "categories",
        "objects":[{
          "name": "Laptop & Tablets",
          "code": "laptop_tablets",
          "level": 1,
          "description":"all things that concern ..."
        },
        {
          "name": "Laptop & Tablet Accessories",
          "code": "l_t_accessories",
          "level": 1,
          "description":"all things that concern ..."
        },
        {
          "name": "Storage Devices",
          "code": "storage_devices",
          "level": 1,
          "description":"all things that concern ..."
        }],
        "parent": "parent_id"
      }]
    },
    {
      "name": "Electronics",
      "code": "electronics",
      "description":"all things that concern electronics",
      "children": [{
        "model": "Category",
        "property": "categories",
        "objects":[{
          "name": "Home Audio & Video",
          "code": "home_audio_video",
          "level": 1,
          "description":"all things that concern ..."
        },
        {
          "name": "Smart Electronics",
          "code": "smart_electronics",
          "level": 1,
          "description":"all things that concern ..."
        },
        {
          "name": "Audio & Video",
          "code": "audio_video",
          "level": 1,
          "description":"all things that concern ..."
        },
          {
          "name": "Parts & Accessories",
          "code": "parts_accessories",
          "level": 1,
          "description":"all things that concern ..."
        }],
        "parent": "parent_id"
      }]
    },
    {
      "name": "Home & kitchen",
      "code": "home_kitchen",
      "description":"all things that concern home and kitchen",
      "children": [{
        "model": "Category",
        "property": "categories",
        "objects": [],
        "parent": "parent_id"
      }]
    },
    {
      "name": "Baby, Kids & Toys",
      "code": "baby_kids_toys",
      "description":"all things that concern baby, kids and toys",
      "children": [{
        "model": "Category",
        "property": "categories",
        "objects":[],
        "parent": "parent_id"
      }]
    },
    {
      "name": "Health & Sports",
      "code": "health_sport",
      "description":"all things that concern health and sports",
      "children": [{
        "model": "Category",
        "property": "categories",
        "objects":[],
        "parent": "parent_id"
      }]
    }
  ]
}
