{
    "model": "OrderStatus",
    "objects": [
        {
            "name": "Pending",
            "code": "pending"
        },
        {
            "name": "Completed",
            "code": "completed"
        },
        {
            "name": "Cancelled",
            "code": "cancelled"
        },
        {
            "name": "Fulfilled",
            "code": "fulfilled"
        },
        {
            "name": "Customer_cancelled",
            "code": "customer-cancelled"
        },
        {
            "name": "Returned",
            "code": "returned"
        },
        {
            "name": "Processing",
            "code": "processing"
        }
    ]
}