{
    "model": "PaymentStatus",
    "objects": [
        {
            "name": "Pending",
            "code": "pending"
        },
        {
            "name": "Approved",
            "code": "approved"
        },
        {
            "name": "Review",
            "code": "review"
        },
        {
            "name": "Aborted",
            "code": "aborted"
        },
        {
            "name": "Paid",
            "code": "paid"
        },
        {
            "name": "Queued",
            "code": "queued"
        },
        {
            "name": "Disbursed",
            "code": "disbursed"
        }
    ]
}
