{
    "model": "PaymentChannel",
    "objects": [
        {
            "name": "Cash",
            "code": "cash"
        },
        {
            "name": "POS",
            "code": "pos"
        }
    ]
}
